{
    "jami": {
        "name": "Jami",
        "logo": "/images/logos/jami.png",
        "logo_alt": "Jami Logo",
        "link": "https://jami.net/",
        "pros": [
            "Available on all operating systems",
            "Peer-to-peer",
            "Username-based",
            "No identifiable user data required at signup"
        ],
        "cons": [
            "Not audited",
            "Not metadata resistant",
            "No disappearing messages"
        ]
    },
    "matrix": {
        "name": "Matrix",
        "logo": "/images/logos/matrix.png",
        "logo_alt": "Matrix Logo",
        "link": "https://matrix.org/",
        "pros": [
            "Available on all operating systems",
            "Decentralized",
            "Username-based",
            "No identifiable user data required at signup",
            "Can be self-hosted",
            "Can be bridged to communicate with other services such as Slack, Telegram, Signal, Discord, Facebook, and more.",
            "Popular clients include [Element](https://element.io/), [FluffyChat](https://fluffychat.im/), and [SchildiChat](https://schildi.chat/)."
        ],
        "cons": [
            "Not audited",
            "Not metadata resistant",
            "No disappearing messages."
        ]
    },
    "session": {
        "name": "Session",
        "logo": "/images/logos/session.png",
        "logo_alt": "Session Logo",
        "link": "https://getsession.org/",
        "pros": [
            "[Audited](https://getsession.org/session-code-audit/)",
            "Available on all operating systems",
            "Decentralized",
            "Username-based",
            "Metadata resistant",
            "No identifiable user data required at signup",
            "Offers disappearing messages"
        ],
        "cons": [
            "In beta, some instability still present",
            "Voice & video calls in beta"
        ]
    },
    "signal": {
        "name": "Signal",
        "logo": "/images/logos/signal.png",
        "logo_alt": "Signal Logo",
        "link": "https://signal.org/",
        "pros": [
            "[Audited](https://community.signalusers.org/t/wiki-overview-of-third-party-security-audits/13243)",
            "Available on all operating systems",
            "Offers disappearing messages"
        ],
        "cons": [
            "Centralized",
            "Phone number required",
            "[Server source code went almost a year without a public update with no explanation](https://linuxreviews.org/Signal_Just_Made_One_Years_Worth_Of_Server-Side_Source_Code_Available_In_One_Huge_Dump)"
        ]
    },
    "threema": {
        "name": "Threema",
        "logo": "/images/logos/threema.png",
        "logo_alt": "Threema Logo",
        "link": "https://threema.ch/",
        "pros": [
            "[Audited](https://threema.ch/en/blog/posts/audit-2020-en)",
            "Available on Android, and iOS",
            "Username-based"
        ],
        "cons": [
            "Centralized",
            "Not free",
            "Desktop app must be synced every time",
            "No disappearing messages"
        ]
    },
    "wire": {
        "name": "Wire",
        "logo": "/images/logos/wire.png",
        "logo_alt": "Wire Logo",
        "link": "https://wire.com/",
        "pros": [
            "[Audited](https://wire.com/en/security/#audits)",
            "Available on all operating systems",
            "Username-based",
            "Offers disappearing messages"
        ],
        "cons": [
            "Centralized",
            "Unclear affiliation with [Morpheus Ventures](https://morpheus.com/portfolio/), who deals heavily with analytics and data collection."
        ]
    }
}
